M48
; DRILL file {KiCad (5.1.6)-1} date 10/01/20 18:33:06
; FORMAT={-:-/ absolute / inch / decimal}
; #@! TF.CreationDate,2020-10-01T18:33:06-04:00
; #@! TF.GenerationSoftware,Kicad,Pcbnew,(5.1.6)-1
; #@! TF.FileFunction,Plated,1,2,PTH
FMAT,2
INCH
T1C0.0315
T2C0.0394
%
G90
G05
T1
X1.378Y-1.6535
X1.4567Y-1.6535
X1.5354Y-1.6535
X1.6142Y-1.6535
T2
X1.3386Y-0.9236
X1.3386Y-1.0236
X1.4386Y-0.9236
X1.4386Y-1.0236
X1.5386Y-0.9236
X1.5386Y-1.0236
X1.6386Y-0.9236
X1.6386Y-1.0236
X1.7386Y-0.9236
X1.7386Y-1.0236
X1.8386Y-0.9236
X1.8386Y-1.0236
X1.9386Y-0.9236
X1.9386Y-1.0236
X2.0386Y-0.9236
X2.0386Y-1.0236
X2.1386Y-0.9236
X2.1386Y-1.0236
X2.2386Y-0.9236
X2.2386Y-1.0236
X2.3386Y-0.9236
X2.3386Y-1.0236
X2.4386Y-0.9236
X2.4386Y-1.0236
X2.5386Y-0.9236
X2.5386Y-1.0236
X2.6386Y-0.9236
X2.6386Y-1.0236
X2.7386Y-0.9236
X2.7386Y-1.0236
X2.8386Y-0.9236
X2.8386Y-1.0236
X2.9386Y-0.9236
X2.9386Y-1.0236
X3.0386Y-0.9236
X3.0386Y-1.0236
X3.1386Y-0.9236
X3.1386Y-1.0236
X3.2386Y-0.9236
X3.2386Y-1.0236
T0
M30
