%TF.GenerationSoftware,KiCad,Pcbnew,(5.1.6)-1*%
%TF.CreationDate,2020-10-01T18:33:05-04:00*%
%TF.ProjectId,control board,636f6e74-726f-46c2-9062-6f6172642e6b,rev?*%
%TF.SameCoordinates,Original*%
%TF.FileFunction,Legend,Top*%
%TF.FilePolarity,Positive*%
%FSLAX46Y46*%
G04 Gerber Fmt 4.6, Leading zero omitted, Abs format (unit mm)*
G04 Created by KiCad (PCBNEW (5.1.6)-1) date 2020-10-01 18:33:05*
%MOMM*%
%LPD*%
G01*
G04 APERTURE LIST*
%ADD10C,0.120000*%
%ADD11C,0.150000*%
G04 APERTURE END LIST*
D10*
%TO.C,R2*%
X34350000Y-32120000D02*
X35550000Y-32120000D01*
X35550000Y-33880000D02*
X34350000Y-33880000D01*
%TO.C,R1*%
X38400000Y-32120000D02*
X39600000Y-32120000D01*
X39600000Y-33880000D02*
X38400000Y-33880000D01*
%TO.C,J1*%
X32670000Y-27330000D02*
X32670000Y-26000000D01*
X34000000Y-27330000D02*
X32670000Y-27330000D01*
X32670000Y-24730000D02*
X32670000Y-22130000D01*
X35270000Y-24730000D02*
X32670000Y-24730000D01*
X35270000Y-27330000D02*
X35270000Y-24730000D01*
X32670000Y-22130000D02*
X83590000Y-22130000D01*
X35270000Y-27330000D02*
X83590000Y-27330000D01*
X83590000Y-27330000D02*
X83590000Y-22130000D01*
%TO.C,J2*%
X33940000Y-40940000D02*
X33940000Y-43060000D01*
X40000000Y-40940000D02*
X33940000Y-40940000D01*
X40000000Y-43060000D02*
X33940000Y-43060000D01*
X40000000Y-40940000D02*
X40000000Y-43060000D01*
X41000000Y-40940000D02*
X42060000Y-40940000D01*
X42060000Y-40940000D02*
X42060000Y-42000000D01*
%TO.C,R2*%
D11*
X34783333Y-31802380D02*
X34450000Y-31326190D01*
X34211904Y-31802380D02*
X34211904Y-30802380D01*
X34592857Y-30802380D01*
X34688095Y-30850000D01*
X34735714Y-30897619D01*
X34783333Y-30992857D01*
X34783333Y-31135714D01*
X34735714Y-31230952D01*
X34688095Y-31278571D01*
X34592857Y-31326190D01*
X34211904Y-31326190D01*
X35164285Y-30897619D02*
X35211904Y-30850000D01*
X35307142Y-30802380D01*
X35545238Y-30802380D01*
X35640476Y-30850000D01*
X35688095Y-30897619D01*
X35735714Y-30992857D01*
X35735714Y-31088095D01*
X35688095Y-31230952D01*
X35116666Y-31802380D01*
X35735714Y-31802380D01*
%TO.C,R1*%
X38833333Y-31802380D02*
X38500000Y-31326190D01*
X38261904Y-31802380D02*
X38261904Y-30802380D01*
X38642857Y-30802380D01*
X38738095Y-30850000D01*
X38785714Y-30897619D01*
X38833333Y-30992857D01*
X38833333Y-31135714D01*
X38785714Y-31230952D01*
X38738095Y-31278571D01*
X38642857Y-31326190D01*
X38261904Y-31326190D01*
X39785714Y-31802380D02*
X39214285Y-31802380D01*
X39500000Y-31802380D02*
X39500000Y-30802380D01*
X39404761Y-30945238D01*
X39309523Y-31040476D01*
X39214285Y-31088095D01*
%TO.C,J1*%
X31122380Y-25063333D02*
X31836666Y-25063333D01*
X31979523Y-25110952D01*
X32074761Y-25206190D01*
X32122380Y-25349047D01*
X32122380Y-25444285D01*
X32122380Y-24063333D02*
X32122380Y-24634761D01*
X32122380Y-24349047D02*
X31122380Y-24349047D01*
X31265238Y-24444285D01*
X31360476Y-24539523D01*
X31408095Y-24634761D01*
%TO.C,J2*%
X42512380Y-42333333D02*
X43226666Y-42333333D01*
X43369523Y-42380952D01*
X43464761Y-42476190D01*
X43512380Y-42619047D01*
X43512380Y-42714285D01*
X42607619Y-41904761D02*
X42560000Y-41857142D01*
X42512380Y-41761904D01*
X42512380Y-41523809D01*
X42560000Y-41428571D01*
X42607619Y-41380952D01*
X42702857Y-41333333D01*
X42798095Y-41333333D01*
X42940952Y-41380952D01*
X43512380Y-41952380D01*
X43512380Y-41333333D01*
%TD*%
M02*
